{
    "aid": "01",
    "sid": "01",
    "adate": "20200701",
    "agent": "1",
    "copies": "1",
    "memo": "\u30E1\u30E2",
    "applicant": {
        "fname": "\u51FA\u8302\u3000\u592A\u90CE",
        "kname": "\uFF83\uFF9E\uFF93 \uFF80\uFF9B\uFF73",
        "birth": "19950604",
        "sex": "1",
        "sexdflag": "0",
        "adr": "\u4E09\u91CD\u770C\u51FA\u8302\u5E02\u624B\u6D32\u6238\u753A\uFF11\uFF12\uFF13\u756A\u5730",
        "division": "1"
    },
    "ptn": "1",
    "style": "1",
    "certificate": "1",
    "matters": {
        "principal": "1",
        "fname": "1",
        "ksname": "1",
        "head": "1",
        "badr": "1",
        "calligraphy": "1",
        "relation": "1",
        "oadr": "1",
        "remarks": "1",
        "mynum": "1",
        "residentcode": "1",
        "padr": "1",
        "fremarks": "1",
        "a30c45": "1",
        "residence": "1",
        "residencecard": "1",
        "nationality": "1",
        "period": "1",
        "edate": "1"
    },
    "seeking": {
        "fname": "\u51FA\u8302\u3000\u592A\u90CE",
        "kname": "\uFF83\uFF9E\uFF93 \uFF80\uFF9B\uFF73",
        "birth": "19950604",
        "sex": "1",
        "sexdflag": "0",
        "division": "1",
        "adr": "\u4E09\u91CD\u770C\u51FA\u8302\u5E02\u624B\u6D32\u6238\u753A\uFF11\uFF12\uFF13\u756A\u5730"
    }
}